............
----------------------------------------------------------------------
Ran 12 tests in 0.000s

OK
Name             Stmts   Miss Branch BrPart  Cover   Missing
------------------------------------------------------------
Collatz.py          36      0     12      0   100%
TestCollatz.py      50      0      0      0   100%
------------------------------------------------------------
TOTAL               86      0     12      0   100%
