1 10 20
100 200 125
201 210 89
900 1000 174
496330 561910 470

303154 377872 441
757958 886486 525
503376 764418 509
285178 371547 441
18314 829711 509
199843 455243 449
596811 993455 525
52712 352943 443
4625 704509 509
459688 997331 525
903352 923122 476
525464 780008 509
829172 864707 525
128191 326874 443
946090 992775 458
848429 869588 419
4216 234092 443
253320 921295 525
462602 803144 509
56710 872918 525
728473 917764 525
470167 749295 509
97170 587566 470
946715 998448 458
165044 294301 443
685551 822958 504
383064 682008 509
658292 960723 525
395265 786014 509
125048 940375 525
284311 429705 449
152056 907021 525
618773 972293 525
271889 317230 389
205927 365952 443
38968 295454 443
895723 940429 507
198052 300598 443
872494 899908 445
329404 995229 525
260349 555928 470
727414 746419 424
526683 620539 452
28357 344358 443
533798 742933 509
453774 797012 509
595468 620480 447
505280 924093 525
89960 501829 449
422551 533827 470
520299 562027 452
192774 876026 525
184104 454237 449
5050 843259 525
869212 993568 507
672230 967979 525
188061 805351 509
994271 996596 365
255710 560989 470
690960 817382 504
295570 400698 441
713490 788729 468
830434 844229 525
565426 629855 509
15311 364506 443
437401 758080 509
144863 539393 470
511048 744789 509
352058 966852 525
115901 204639 383
393702 414390 449
462246 632889 509
188813 927243 525
788224 991981 525
455483 902980 525
175412 204085 365
881903 932137 476
893072 989753 507
68937 395105 443
326247 993655 525
896732 968011 507
226142 458608 449
44629 877577 525
52650 798277 509
399762 859509 525
999999 999999 259
1 999999 525
795614 887203 525
879554 883827 357
232183 721207 509
84991 197113 383
140648 172256 383
636864 824763 504
990220 995480 365
970063 989331 458
252351 910586 525
78383 482180 449
343252 441212 449
162658 475234 449
309203 343631 384
255523 590922 470
705386 950564 525
601543 720211 509
343506 907633 525
93267 477491 449
118992 171071 383
990815 997020 365
669051 885689 525
405647 629297 509
355237 970820 525
841316 936837 476
422546 636823 509
999186 999553 396
79094 443993 449
311963 469959 449
417248 771389 509
487458 943332 525
959410 979679 458
744508 944474 525
455260 751231 509
406252 775521 509
789340 951328 525
527983 83700 470
686680 137797 509
51900 22529 324
865935 491818 525
699510 95826 509
750171 11866 509
414274 54746 449
645923 365599 509
144433 90457 375
878242 286561 525
727829 87796 509
732995 526837 509
542446 523891 408
9124 138 262
645211 267363 509
877325 741265 525
619480 214794 470
647494 373891 509
449251 151481 449
188642 161418 365
237784 163331 443
51631 26966 324
749969 174604 509
479645 398745 449
125287 119680 336
62625 57521 335
836423 425539 509
253562 57119 443
647399 552355 509
319449 36125 443
59592 13157 340
40817 40384 257
204111 202271 342
281209 241781 407
526830 84721 470
311844 309339 371
663457 604877 509
999956 756466 525
540918 448942 470
263167 255113 407
1741 553 182
355727 219298 443
788141 656117 504
204748 185126 360
278614 223282 443
879289 475683 525
152704 63272 375
612129 298904 470
1 11 20
5 25 24
30 25 112
60 11 113
44 90 116
50 150 122
999999 999999 259
1 1 1
